<svg id="Grupo_722" data-name="Grupo 722" xmlns="http://www.w3.org/2000/svg" width="47.218" height="47.21" viewBox="0 0 47.218 47.21">
  <g id="Grupo_719" data-name="Grupo 719" transform="translate(0.008)">
    <g id="Grupo_718" data-name="Grupo 718" transform="translate(0)">
      <rect id="Rectángulo_80" data-name="Rectángulo 80" width="53.185" height="13.581" transform="translate(0 37.607) rotate(-45)" fill="#ee7a01"/>
    </g>
  </g>
  <g id="Grupo_721" data-name="Grupo 721" transform="translate(0 0.006)">
    <g id="Grupo_720" data-name="Grupo 720" transform="translate(0 0)">
      <rect id="Rectángulo_81" data-name="Rectángulo 81" width="13.581" height="53.185" transform="matrix(0.707, -0.707, 0.707, 0.707, 0, 9.605)" fill="#ee7a01"/>
    </g>
  </g>
</svg>
