<svg xmlns="http://www.w3.org/2000/svg" width="306.016" height="58.452" viewBox="0 0 306.016 58.452">
  <path id="Trazado_5048" data-name="Trazado 5048" d="M557.622,513.976a4.515,4.515,0,0,1,1.3-3.177c.226-.18.449-.359.672-.537a2.643,2.643,0,0,1,.806-.4,2.881,2.881,0,0,1,.806-.271,6.042,6.042,0,0,1,.895-.088,4.476,4.476,0,0,1,3.177,7.654,4.361,4.361,0,0,1-.715.537,4.113,4.113,0,0,1-.761.446,4.8,4.8,0,0,1-.851.228,2.832,2.832,0,0,1-.85.087,3.14,3.14,0,0,1-.895-.087,5.546,5.546,0,0,1-.806-.228,4.456,4.456,0,0,1-.806-.446,8.05,8.05,0,0,1-.672-.537A4.519,4.519,0,0,1,557.622,513.976Zm.09,25.65a5.744,5.744,0,0,0,.226.8,5.323,5.323,0,0,0,.983,1.478,4.518,4.518,0,0,0,3.179,1.3,4.4,4.4,0,0,0,1.7-.316,5.376,5.376,0,0,0,1.433-.983,8.317,8.317,0,0,0,.58-.673,3.341,3.341,0,0,0,.4-.8,2.821,2.821,0,0,0,.269-.8,4.281,4.281,0,0,0-.269-2.6,4.736,4.736,0,0,0-2.416-2.417,4.38,4.38,0,0,0-1.7-.359,4.548,4.548,0,0,0-3.179,1.342,5.417,5.417,0,0,0-.983,1.435,4.358,4.358,0,0,0-.316,1.7A3.063,3.063,0,0,0,557.712,539.625Zm1.209,27.028a4.607,4.607,0,0,0,3.179,1.3,4.123,4.123,0,0,0,3.134-1.3,8.286,8.286,0,0,0,.58-.669,3.451,3.451,0,0,0,.4-.8,2.81,2.81,0,0,0,.269-.809,4.337,4.337,0,0,0-1.252-4.025,3.913,3.913,0,0,0-1.433-.987,4.465,4.465,0,0,0-1.7-.359,6.269,6.269,0,0,0-.895.091,2.92,2.92,0,0,0-.806.268,3.425,3.425,0,0,0-.806.405,6.987,6.987,0,0,0-.672.582,5.368,5.368,0,0,0-.983,1.43,4.37,4.37,0,0,0-.316,1.7A4.615,4.615,0,0,0,558.921,566.654Zm-24.75-49.5a5.656,5.656,0,0,0,1.478.983,4.531,4.531,0,0,0,4.832-.983,4.594,4.594,0,0,0,0-6.356,4.408,4.408,0,0,0-1.432-.939,4.2,4.2,0,0,0-3.4,0,4.158,4.158,0,0,0-1.478.939,4.539,4.539,0,0,0,0,6.356Zm0,24.752a7.036,7.036,0,0,0,.672.537,6.555,6.555,0,0,0,.76.446,7.358,7.358,0,0,0,.85.224,3,3,0,0,0,.9.091,2.7,2.7,0,0,0,.851-.091,4.457,4.457,0,0,0,.85-.224,7.836,7.836,0,0,0,1.478-.983,4.644,4.644,0,0,0,.939-4.878,4.419,4.419,0,0,0-.939-1.435,4.678,4.678,0,0,0-.717-.58,2.415,2.415,0,0,0-.761-.4,2.648,2.648,0,0,0-.85-.271,5.663,5.663,0,0,0-.851-.088,6.286,6.286,0,0,0-.9.088,3.605,3.605,0,0,0-.85.271,2.984,2.984,0,0,0-.76.4,8.314,8.314,0,0,0-.672.58,4.572,4.572,0,0,0-.986,1.435,4.613,4.613,0,0,0,.986,4.878Zm-1.209,22.466a5.444,5.444,0,0,0,.223.809,7.956,7.956,0,0,0,.449.8,6.787,6.787,0,0,0,.537.669,4.964,4.964,0,0,0,1.478.989,5.42,5.42,0,0,0,1.7.31,4.69,4.69,0,0,0,3.179-1.3,4.638,4.638,0,0,0,.939-4.876,4.383,4.383,0,0,0-.939-1.43,4.123,4.123,0,0,0-.717-.582,2.523,2.523,0,0,0-.761-.405,2.767,2.767,0,0,0-.85-.268,5.686,5.686,0,0,0-.851-.091,4.464,4.464,0,0,0-1.7.359,3.719,3.719,0,0,0-1.478.987,4.323,4.323,0,0,0-1.3,3.129A3.029,3.029,0,0,0,532.962,564.372Zm-23.543-47.218a4.5,4.5,0,0,0,3.177,1.3,4.346,4.346,0,0,0,1.7-.314,5.426,5.426,0,0,0,1.431-.983,4.6,4.6,0,0,0,0-6.356,4.425,4.425,0,0,0-1.431-.939,4.476,4.476,0,0,0-1.7-.359,4.882,4.882,0,0,0-1.744.359,4.432,4.432,0,0,0-1.433.939,4.538,4.538,0,0,0,0,6.356Zm-1.209,22.471a5.533,5.533,0,0,0,.224.8,5.469,5.469,0,0,0,.984,1.478,4.517,4.517,0,0,0,3.177,1.3,2.713,2.713,0,0,0,.853-.091,4.489,4.489,0,0,0,.85-.224,4.294,4.294,0,0,0,.761-.446,2.738,2.738,0,0,0,.67-.537,4.571,4.571,0,0,0,.986-4.878,3.914,3.914,0,0,0-.986-1.435,2.945,2.945,0,0,0-.67-.58,2.433,2.433,0,0,0-.761-.4,2.661,2.661,0,0,0-.85-.271,5.683,5.683,0,0,0-.853-.088,4.547,4.547,0,0,0-3.177,1.342,5.459,5.459,0,0,0-.984,1.435,4.385,4.385,0,0,0-.314,1.7A3.063,3.063,0,0,0,508.21,539.625Zm0,24.747a5.445,5.445,0,0,0,.224.809,7.381,7.381,0,0,0,.449.8,3.5,3.5,0,0,0,.535.669,4.492,4.492,0,0,0,1.433.989,5.95,5.95,0,0,0,1.744.31,4.117,4.117,0,0,0,3.134-1.3,8.011,8.011,0,0,0,.582-.669,7.09,7.09,0,0,0,.4-.8,2.849,2.849,0,0,0,.266-.809,4.444,4.444,0,0,0-1.252-4.025,3.92,3.92,0,0,0-1.431-.987,4.473,4.473,0,0,0-1.7-.359,4.879,4.879,0,0,0-1.744.359,3.926,3.926,0,0,0-1.433.987,4.317,4.317,0,0,0-1.3,3.129A3.027,3.027,0,0,0,508.21,564.372Zm-23.542-47.218a7.549,7.549,0,0,0,.67.537,6.279,6.279,0,0,0,.761.446,6.153,6.153,0,0,0,.85.228,3.16,3.16,0,0,0,.9.087,2.833,2.833,0,0,0,.85-.087,4.871,4.871,0,0,0,.851-.228,4,4,0,0,0,.76-.446,2.8,2.8,0,0,0,.673-.537,4.69,4.69,0,0,0,0-6.356,4.525,4.525,0,0,0-3.134-1.3,5.531,5.531,0,0,0-.9.088,3.169,3.169,0,0,0-.85.271,3.021,3.021,0,0,0-.761.4l-.67.537a4.538,4.538,0,0,0,0,6.356Zm-1.209,22.471a5.33,5.33,0,0,0,.223.8,7.319,7.319,0,0,0,.447.8,3.544,3.544,0,0,0,.539.673,5.343,5.343,0,0,0,1.432.983,4.793,4.793,0,0,0,1.746.316,4.343,4.343,0,0,0,3.134-1.3,8.052,8.052,0,0,0,.582-.673c.133-.266.269-.537.4-.8.09-.271.178-.537.268-.8a4.281,4.281,0,0,0-.268-2.6,3.93,3.93,0,0,0-.984-1.435,4.371,4.371,0,0,0-3.134-1.342,4.789,4.789,0,0,0-1.746.359,3.921,3.921,0,0,0-1.432.983,4.572,4.572,0,0,0-.986,1.435,4.412,4.412,0,0,0-.313,1.7A3.063,3.063,0,0,0,483.459,539.625Zm1.209,27.028a4.525,4.525,0,0,0,3.177,1.3,4.123,4.123,0,0,0,3.134-1.3,8.023,8.023,0,0,0,.582-.669c.133-.271.269-.537.4-.8l.268-.809a4.571,4.571,0,0,0-1.252-4.025,3.924,3.924,0,0,0-1.433-.987,4.477,4.477,0,0,0-1.7-.359,5.7,5.7,0,0,0-.9.091,3.213,3.213,0,0,0-.85.268,2.505,2.505,0,0,0-.761.405,3.867,3.867,0,0,0-.67.582,4.535,4.535,0,0,0-.986,1.43,4.61,4.61,0,0,0,.986,4.876Zm-24.753-49.5a4.089,4.089,0,0,0,.673.537,4.017,4.017,0,0,0,.761.446,6.148,6.148,0,0,0,.85.228,2.843,2.843,0,0,0,.85.087,3.014,3.014,0,0,0,.9-.087,6.212,6.212,0,0,0,.85-.228,4.053,4.053,0,0,0,.76-.446,2.794,2.794,0,0,0,.672-.537,4.687,4.687,0,0,0,0-6.356,4.548,4.548,0,0,0-3.179-1.3,5.479,5.479,0,0,0-.85.088,3.168,3.168,0,0,0-.85.271,2.4,2.4,0,0,0-.761.4,8.458,8.458,0,0,0-.673.537,4.434,4.434,0,0,0,0,6.356Zm-1.252,22.471c.09.266.18.532.269.8l.4.8a8.037,8.037,0,0,0,.58.673,3.929,3.929,0,0,0,.673.537,4.186,4.186,0,0,0,.761.446,5.555,5.555,0,0,0,.85.224,2.847,2.847,0,0,0,.9.091,4.563,4.563,0,0,0,1.7-.316,5.367,5.367,0,0,0,1.431-.983,7.768,7.768,0,0,0,.582-.673c.135-.266.268-.537.4-.8.09-.271.18-.537.268-.8a4.292,4.292,0,0,0-.268-2.6,4.6,4.6,0,0,0-.986-1.435,3.933,3.933,0,0,0-1.431-.983,4.563,4.563,0,0,0-1.7-.359,5.682,5.682,0,0,0-.9.088,3.055,3.055,0,0,0-.85.271,2.4,2.4,0,0,0-.761.4,4.331,4.331,0,0,0-.673.58,4.562,4.562,0,0,0-.983,1.435,4.4,4.4,0,0,0-.359,1.7A6.359,6.359,0,0,0,458.662,539.625Zm.043,24.747a5.652,5.652,0,0,0,.226.809c.133.266.269.532.4.8a8.007,8.007,0,0,0,.58.669,4.5,4.5,0,0,0,1.435.989,4.765,4.765,0,0,0,2.6.223,6.2,6.2,0,0,0,.85-.223,4.332,4.332,0,0,0,.76-.45,1.911,1.911,0,0,0,.672-.539,4.565,4.565,0,0,0,.986-4.876,3.922,3.922,0,0,0-.986-1.43,2.689,2.689,0,0,0-.672-.582,2.517,2.517,0,0,0-.76-.405,3.231,3.231,0,0,0-.85-.268,5.729,5.729,0,0,0-.851-.091,4.874,4.874,0,0,0-1.746.359,3.931,3.931,0,0,0-1.435.987,4.32,4.32,0,0,0-1.3,3.129A3.132,3.132,0,0,0,458.706,564.372Zm-23.54-47.218a2.753,2.753,0,0,0,.67.537,4.149,4.149,0,0,0,.76.446,6.231,6.231,0,0,0,.851.228,3,3,0,0,0,.9.087,2.838,2.838,0,0,0,.85-.087,6.093,6.093,0,0,0,.85-.228,4.014,4.014,0,0,0,.761-.446,4.087,4.087,0,0,0,.673-.537,4.643,4.643,0,0,0,0-6.356,8.448,8.448,0,0,0-.673-.537,2.4,2.4,0,0,0-.761-.4,3.151,3.151,0,0,0-.85-.271,5.459,5.459,0,0,0-.85-.088,4.434,4.434,0,0,0-4.476,4.476A4.436,4.436,0,0,0,435.165,517.154Zm0,24.752a2.68,2.68,0,0,0,.67.537,4.331,4.331,0,0,0,.76.446,5.624,5.624,0,0,0,.851.224,2.714,2.714,0,0,0,.853.091,2.97,2.97,0,0,0,.893-.091,5.511,5.511,0,0,0,.85-.224,4.183,4.183,0,0,0,.761-.446,2.755,2.755,0,0,0,.673-.537,4.57,4.57,0,0,0,.983-4.878,3.925,3.925,0,0,0-.983-1.435,2.963,2.963,0,0,0-.673-.58,2.4,2.4,0,0,0-.761-.4,3.04,3.04,0,0,0-.85-.271,6.223,6.223,0,0,0-.893-.088,5.683,5.683,0,0,0-.853.088,3.081,3.081,0,0,0-.851.271,2.441,2.441,0,0,0-.76.4,2.879,2.879,0,0,0-.67.58,3.916,3.916,0,0,0-.986,1.435,4.613,4.613,0,0,0,.986,4.878Zm-1.254,22.466.268.809c.135.266.268.532.4.8a7.748,7.748,0,0,0,.582.669,4.111,4.111,0,0,0,3.134,1.3,4.138,4.138,0,0,0,3.177-1.3,7.712,7.712,0,0,0,.58-.669c.135-.271.269-.537.4-.8.09-.271.18-.539.269-.809a4.571,4.571,0,0,0-1.252-4.025,3.931,3.931,0,0,0-1.435-.987,4.314,4.314,0,0,0-3.446,0,3.914,3.914,0,0,0-1.43.987,4.36,4.36,0,0,0-1.343,3.129A6,6,0,0,0,433.912,564.372Zm-23.5-47.218a4.4,4.4,0,0,0,3.132,1.3,4.731,4.731,0,0,0,1.747-.314,5.366,5.366,0,0,0,1.43-.983,4.639,4.639,0,0,0,0-6.356,4.384,4.384,0,0,0-1.43-.939,4.708,4.708,0,0,0-1.747-.359,4.48,4.48,0,0,0-1.7.359,4.407,4.407,0,0,0-1.432.939,4.431,4.431,0,0,0,0,6.356Zm-1.254,22.471c.09.266.18.532.269.8.133.268.268.539.4.8a7.815,7.815,0,0,0,.583.673,5.367,5.367,0,0,0,1.432.983,4.6,4.6,0,0,0,4.878-.983,7.05,7.05,0,0,0,.582-.673c.136-.266.269-.537.4-.8.09-.271.18-.537.269-.8a5.1,5.1,0,0,0-.269-2.6,4.52,4.52,0,0,0-.986-1.435,4.465,4.465,0,0,0-3.177-1.342,4.391,4.391,0,0,0-1.7.359,3.933,3.933,0,0,0-1.432.983,4.516,4.516,0,0,0-.984,1.435,4.455,4.455,0,0,0-.359,1.7A6.359,6.359,0,0,0,409.16,539.625Zm1.254,27.028a4.482,4.482,0,0,0,6.309,0,4.559,4.559,0,0,0,.986-4.876,3.885,3.885,0,0,0-.986-1.43A4.384,4.384,0,0,0,413.546,559a5.643,5.643,0,0,0-.85.091,2.79,2.79,0,0,0-.851.268,2.517,2.517,0,0,0-.76.405,2.661,2.661,0,0,0-.672.582,3.881,3.881,0,0,0-.984,1.43,4.353,4.353,0,0,0,.984,4.876Zm-24.752-49.5a2.792,2.792,0,0,0,.672.537,4.151,4.151,0,0,0,.76.446,4.82,4.82,0,0,0,.853.228,2.828,2.828,0,0,0,.85.087,3.139,3.139,0,0,0,.894-.087,6.091,6.091,0,0,0,.85-.228,4.078,4.078,0,0,0,.763-.446,4.145,4.145,0,0,0,.672-.537,4.687,4.687,0,0,0,0-6.356,4.551,4.551,0,0,0-3.179-1.3,5.42,5.42,0,0,0-.85.088,2.738,2.738,0,0,0-.853.271,2.443,2.443,0,0,0-.76.4,4.3,4.3,0,0,0-.672.537,4.434,4.434,0,0,0,0,6.356Zm-1.252,22.471a5.629,5.629,0,0,0,.269.8,6.373,6.373,0,0,0,.4.8,8.041,8.041,0,0,0,.582.673,4.338,4.338,0,0,0,3.134,1.3,4.784,4.784,0,0,0,1.744-.316,5.408,5.408,0,0,0,1.435-.983,3.653,3.653,0,0,0,.537-.673,7.293,7.293,0,0,0,.446-.8,5.533,5.533,0,0,0,.224-.8,4.625,4.625,0,0,0-.224-2.6,4.563,4.563,0,0,0-.983-1.435,3.957,3.957,0,0,0-1.435-.983,4.781,4.781,0,0,0-1.744-.359,4.366,4.366,0,0,0-3.134,1.342,3.906,3.906,0,0,0-.983,1.435,4.4,4.4,0,0,0-.359,1.7A5.937,5.937,0,0,0,384.41,539.625Zm0,24.747c.09.271.18.539.269.809.133.266.266.532.4.8a8.011,8.011,0,0,0,.582.669,4.117,4.117,0,0,0,3.134,1.3,5.709,5.709,0,0,0,1.744-.31,5.427,5.427,0,0,0,1.435-.989,4.391,4.391,0,0,0,0-6.306,3.931,3.931,0,0,0-1.435-.987A4.7,4.7,0,0,0,388.8,559a4.473,4.473,0,0,0-1.7.359,3.919,3.919,0,0,0-1.431.987,4.364,4.364,0,0,0-1.342,3.129A5.8,5.8,0,0,0,384.41,564.372Zm-23.5-47.218a2.8,2.8,0,0,0,.672.537,4.006,4.006,0,0,0,.76.446,4.871,4.871,0,0,0,.851.228,2.833,2.833,0,0,0,.85.087,3.144,3.144,0,0,0,.9-.087,8.479,8.479,0,0,0,.85-.228,6.153,6.153,0,0,0,.76-.446,7.138,7.138,0,0,0,.672-.537,4.684,4.684,0,0,0,0-6.356,4.542,4.542,0,0,0-3.177-1.3,5.44,5.44,0,0,0-.85.088,2.754,2.754,0,0,0-.851.271,2.4,2.4,0,0,0-.76.4,4.3,4.3,0,0,0-.672.537,4.431,4.431,0,0,0,0,6.356Zm-.045,24.752a4.263,4.263,0,0,0,.716.537,4.175,4.175,0,0,0,.76.446,4.5,4.5,0,0,0,.851.224,2.69,2.69,0,0,0,.85.091,2.985,2.985,0,0,0,.9-.091,7.359,7.359,0,0,0,.85-.224,6.565,6.565,0,0,0,.76-.446,6.66,6.66,0,0,0,.672-.537,4.394,4.394,0,0,0,0-6.313,7.8,7.8,0,0,0-.672-.58,2.986,2.986,0,0,0-.76-.4,3.606,3.606,0,0,0-.85-.271,6.243,6.243,0,0,0-.9-.088,5.623,5.623,0,0,0-.85.088,2.669,2.669,0,0,0-.851.271,2.393,2.393,0,0,0-.76.4,4.677,4.677,0,0,0-.716.58,4.652,4.652,0,0,0-1.3,3.135A4.635,4.635,0,0,0,360.866,541.906Zm-1.209,22.466a2.907,2.907,0,0,0,.268.809,3.576,3.576,0,0,0,.4.8,7.785,7.785,0,0,0,.583.669,4.117,4.117,0,0,0,3.132,1.3,5.951,5.951,0,0,0,1.746-.31,5.362,5.362,0,0,0,1.431-.989,3.394,3.394,0,0,0,.537-.669,7.943,7.943,0,0,0,.449-.8,5.245,5.245,0,0,0,.223-.809,4.424,4.424,0,0,0-1.209-4.025,3.894,3.894,0,0,0-1.431-.987,4.881,4.881,0,0,0-1.746-.359,4.477,4.477,0,0,0-1.7.359,3.907,3.907,0,0,0-1.432.987,4.366,4.366,0,0,0-1.343,3.129A6,6,0,0,0,359.658,564.372Zm-23.543-47.218a4.57,4.57,0,0,0,.715.537,4.125,4.125,0,0,0,.763.446,4.748,4.748,0,0,0,.85.228,2.848,2.848,0,0,0,.851.087,3.123,3.123,0,0,0,.893-.087,5.546,5.546,0,0,0,.806-.228,4.521,4.521,0,0,0,.808-.446,7.549,7.549,0,0,0,.67-.537,4.684,4.684,0,0,0,0-6.356l-.67-.537a2.668,2.668,0,0,0-.808-.4,2.881,2.881,0,0,0-.806-.271,6,6,0,0,0-.893-.088,4.431,4.431,0,0,0-4.476,4.476A4.627,4.627,0,0,0,336.114,517.154Zm-1.207,22.471a2.822,2.822,0,0,0,.268.8,6.847,6.847,0,0,0,.4.8,8.041,8.041,0,0,0,.582.673,5.4,5.4,0,0,0,1.433.983,4.4,4.4,0,0,0,1.7.316,2.965,2.965,0,0,0,.893-.091,5.015,5.015,0,0,0,.806-.224,4.721,4.721,0,0,0,.808-.446,7.015,7.015,0,0,0,.67-.537,4.568,4.568,0,0,0,.984-4.878,5.423,5.423,0,0,0-.984-1.435,8.29,8.29,0,0,0-.67-.58,2.667,2.667,0,0,0-.808-.4,2.779,2.779,0,0,0-.806-.271,6.2,6.2,0,0,0-.893-.088,4.38,4.38,0,0,0-1.7.359,3.951,3.951,0,0,0-1.433.983,3.893,3.893,0,0,0-.984,1.435,4.425,4.425,0,0,0-.357,1.7A5.945,5.945,0,0,0,334.907,539.625Zm1.207,27.028a2.644,2.644,0,0,0,.715.539,4.413,4.413,0,0,0,.763.45,4.761,4.761,0,0,0,.85.223,5.669,5.669,0,0,0,.851.087,4.429,4.429,0,0,0,3.177-7.6A4.463,4.463,0,0,0,339.293,559a5.686,5.686,0,0,0-.851.091,2.741,2.741,0,0,0-.85.268,2.55,2.55,0,0,0-.763.405,4.231,4.231,0,0,0-.715.582,4.359,4.359,0,0,0-.939,1.43,4.441,4.441,0,0,0-.357,1.7A4.607,4.607,0,0,0,336.114,566.654Zm-24.706-49.5a4.536,4.536,0,0,0,4.835.983,5.638,5.638,0,0,0,1.475-.983,4.687,4.687,0,0,0,0-6.356,4.172,4.172,0,0,0-1.475-.939,4.212,4.212,0,0,0-3.4,0,4.392,4.392,0,0,0-1.432.939,4.427,4.427,0,0,0,0,6.356Zm-1.255,22.471a2.98,2.98,0,0,0,.269.8,3.348,3.348,0,0,0,.4.8c.178.223.356.45.536.673a6.469,6.469,0,0,0,1.478.983,4.4,4.4,0,0,0,1.7.316,4.516,4.516,0,0,0,3.177-1.3,6.82,6.82,0,0,0,.537-.673,3.348,3.348,0,0,0,.4-.8,2.87,2.87,0,0,0,.268-.8,4.281,4.281,0,0,0-.268-2.6,4.421,4.421,0,0,0-.941-1.435,4.546,4.546,0,0,0-3.177-1.342,4.386,4.386,0,0,0-1.7.359,4.529,4.529,0,0,0-1.478.983,4.672,4.672,0,0,0-1.3,3.135A6.368,6.368,0,0,0,310.154,539.625Zm0,24.747a2.964,2.964,0,0,0,.269.809,3.46,3.46,0,0,0,.4.8q.267.334.536.669a6.494,6.494,0,0,0,1.478.989,5.43,5.43,0,0,0,1.7.31,4.608,4.608,0,0,0,3.177-1.3,4.467,4.467,0,0,0,.941-4.876,4.385,4.385,0,0,0-.941-1.43,6.3,6.3,0,0,0-.672-.582,3.435,3.435,0,0,0-.8-.405,2.945,2.945,0,0,0-.808-.268,6.222,6.222,0,0,0-.894-.091,4.515,4.515,0,0,0-4.477,4.476A6.211,6.211,0,0,0,310.154,564.372Zm-23.542-47.218a4.44,4.44,0,0,0,.717.537,4.012,4.012,0,0,0,.761.446,4.818,4.818,0,0,0,.85.228,2.843,2.843,0,0,0,.85.087,3.155,3.155,0,0,0,.9-.087,5.581,5.581,0,0,0,.8-.228,6.747,6.747,0,0,0,.806-.446,7.572,7.572,0,0,0,.672-.537,4.687,4.687,0,0,0,0-6.356,4.627,4.627,0,0,0-3.179-1.3,5.479,5.479,0,0,0-.85.088,2.732,2.732,0,0,0-.85.271,2.4,2.4,0,0,0-.761.4c-.268.178-.494.357-.717.537a4.538,4.538,0,0,0,0,6.356Zm0,24.752a4.262,4.262,0,0,0,.717.537,4.182,4.182,0,0,0,.761.446,4.457,4.457,0,0,0,.85.224,2.7,2.7,0,0,0,.85.091,3,3,0,0,0,.9-.091,5.042,5.042,0,0,0,.8-.224,7.207,7.207,0,0,0,.806-.446,7.036,7.036,0,0,0,.672-.537,4.473,4.473,0,0,0,.939-4.878,4.418,4.418,0,0,0-.939-1.435,8.314,8.314,0,0,0-.672-.58,3.265,3.265,0,0,0-.806-.4,2.786,2.786,0,0,0-.8-.271,6.288,6.288,0,0,0-.9-.088,5.664,5.664,0,0,0-.85.088,2.648,2.648,0,0,0-.85.271,2.4,2.4,0,0,0-.761.4,4.675,4.675,0,0,0-.717.58,4.672,4.672,0,0,0-1.3,3.135A4.628,4.628,0,0,0,286.612,541.906Zm0,24.747a2.6,2.6,0,0,0,.717.539,4.285,4.285,0,0,0,.761.45,4.831,4.831,0,0,0,.85.223,5.668,5.668,0,0,0,.85.087,5.43,5.43,0,0,0,1.7-.31,4.685,4.685,0,0,0,1.478-.989,7.018,7.018,0,0,0,.537-.669,3.454,3.454,0,0,0,.4-.8,2.766,2.766,0,0,0,.269-.809,4.428,4.428,0,0,0-1.209-4.025,4.09,4.09,0,0,0-1.478-.987,4.471,4.471,0,0,0-1.7-.359,5.687,5.687,0,0,0-.85.091,2.767,2.767,0,0,0-.85.268,2.5,2.5,0,0,0-.761.405,4.12,4.12,0,0,0-.717.582,4.383,4.383,0,0,0-.939,1.43,4.442,4.442,0,0,0-.359,1.7A4.608,4.608,0,0,0,286.612,566.654Zm-24.752-49.5a7.363,7.363,0,0,0,.673.537,6.723,6.723,0,0,0,.8.446,5.659,5.659,0,0,0,.806.228,3.15,3.15,0,0,0,.9.087,3.291,3.291,0,0,0,.893-.087,5.6,5.6,0,0,0,.806-.228,6.5,6.5,0,0,0,.8-.446,7.8,7.8,0,0,0,.673-.537,4.476,4.476,0,0,0-3.177-7.654,6.041,6.041,0,0,0-.9.088,2.915,2.915,0,0,0-.806.271,3.252,3.252,0,0,0-.8.4c-.226.178-.449.357-.673.537a4.542,4.542,0,0,0,0,6.356Zm0,24.752a4.524,4.524,0,0,0,3.18,1.3,2.974,2.974,0,0,0,.893-.091,5.058,5.058,0,0,0,.806-.224,6.924,6.924,0,0,0,.8-.446,7.236,7.236,0,0,0,.673-.537,4.556,4.556,0,0,0,.939-4.878,4.443,4.443,0,0,0-.939-1.435,8.586,8.586,0,0,0-.673-.58,3.2,3.2,0,0,0-.8-.4,2.794,2.794,0,0,0-.806-.271,6.243,6.243,0,0,0-.893-.088,4.554,4.554,0,0,0-3.18,1.342,4.661,4.661,0,0,0-1.3,3.135A4.634,4.634,0,0,0,261.86,541.906Zm-1.209,22.466a2.861,2.861,0,0,0,.269.809,3.4,3.4,0,0,0,.4.8q.269.334.535.669a6.519,6.519,0,0,0,1.476.989,5.441,5.441,0,0,0,1.7.31,4.614,4.614,0,0,0,3.177-1.3,4.47,4.47,0,0,0,.939-4.876,4.406,4.406,0,0,0-.939-1.43,6.8,6.8,0,0,0-.673-.582,3.385,3.385,0,0,0-.8-.405,2.936,2.936,0,0,0-.806-.268,6.268,6.268,0,0,0-.893-.091,4.513,4.513,0,0,0-4.477,4.476A6.209,6.209,0,0,0,260.651,564.372Z" transform="translate(-260.563 -509.5)" fill="#ee7a01"/>
</svg>
