<svg xmlns="http://www.w3.org/2000/svg" width="124.95" height="53.351" viewBox="0 0 124.95 53.351">
  <g id="Grupo_1161" data-name="Grupo 1161" transform="translate(-66.847)">
    <g id="Grupo_1005" data-name="Grupo 1005" transform="translate(67.772 24.602)">
      <path id="Trazado_888" data-name="Trazado 888" d="M36.159,56.472V67.861H32.546V39.741h9.582a8.662,8.662,0,0,1,6.206,2.434,8.128,8.128,0,0,1,0,11.9,8.653,8.653,0,0,1-6.206,2.4Zm0-13.276v9.819h6.049a4.775,4.775,0,0,0,3.574-1.452A4.93,4.93,0,0,0,42.207,43.2Z" transform="translate(-32.546 -39.741)" fill="#ee7a01"/>
      <path id="Trazado_889" data-name="Trazado 889" d="M51.565,44.2a8.966,8.966,0,0,1,6.324,2.14,7.6,7.6,0,0,1,2.316,5.871V64.072H56.75V61.4h-.157a6.9,6.9,0,0,1-5.969,3.3A7.754,7.754,0,0,1,45.3,62.814a6.013,6.013,0,0,1-2.14-4.711,5.721,5.721,0,0,1,2.259-4.752,9.516,9.516,0,0,1,6.028-1.768,10.68,10.68,0,0,1,5.3,1.178v-.825a4.111,4.111,0,0,0-1.493-3.2,5.12,5.12,0,0,0-3.494-1.315,5.537,5.537,0,0,0-4.793,2.553l-3.18-2A8.866,8.866,0,0,1,51.565,44.2ZM46.893,58.18a2.883,2.883,0,0,0,1.2,2.357,4.409,4.409,0,0,0,2.81.943,5.764,5.764,0,0,0,4.064-1.689,5.292,5.292,0,0,0,1.787-3.968,7.427,7.427,0,0,0-4.713-1.336,6.123,6.123,0,0,0-3.672,1.062A3.146,3.146,0,0,0,46.893,58.18Z" transform="translate(-23.525 -35.952)" fill="#ee7a01"/>
      <path id="Trazado_890" data-name="Trazado 890" d="M54.584,47.245h3.457v3.143H58.2q1.609-3.69,6.637-3.692l.745.08v3.77l-1.609-.157a5.767,5.767,0,0,0-4.143,1.552,5.206,5.206,0,0,0-1.63,3.946v10.6H54.584ZM77.127,66.8A5.488,5.488,0,0,1,73.22,65.35,5.38,5.38,0,0,1,71.63,61.3V50.545H68.252v-3.3H71.63v-5.89h3.613v5.89h4.713v3.3H75.242v9.582a3.5,3.5,0,0,0,.747,2.612,2.421,2.421,0,0,0,1.687.688,3.681,3.681,0,0,0,.845-.1,4.593,4.593,0,0,0,.766-.255l1.139,3.22A9.754,9.754,0,0,1,77.127,66.8Z" transform="translate(-13.819 -38.369)" fill="#ee7a01"/>
      <path id="Trazado_891" data-name="Trazado 891" d="M70.274,44.827h3.455V47.5h.157a6.433,6.433,0,0,1,2.534-2.357,7.268,7.268,0,0,1,3.553-.942,7.113,7.113,0,0,1,5.44,2.022,8.079,8.079,0,0,1,1.905,5.755v12.1H83.705V52.211Q83.589,47.5,78.953,47.5a4.514,4.514,0,0,0-3.613,1.748,6.331,6.331,0,0,0-1.454,4.182V64.072H70.274Z" transform="translate(-0.486 -35.952)" fill="#ee7a01"/>
      <path id="Trazado_892" data-name="Trazado 892" d="M90.926,64.7a9.2,9.2,0,0,1-6.99-2.908,10.256,10.256,0,0,1-2.749-7.344,10.453,10.453,0,0,1,2.671-7.325,9.6,9.6,0,0,1,13.648-.155q2.533,2.766,2.532,7.756l-.039.392H84.879a6.27,6.27,0,0,0,1.885,4.556A6.088,6.088,0,0,0,96.5,57.946l3.22,1.57a9.583,9.583,0,0,1-3.592,3.809A9.936,9.936,0,0,1,90.926,64.7ZM85.153,52.132H96.189a4.791,4.791,0,0,0-1.63-3.318A5.707,5.707,0,0,0,90.612,47.5,5.237,5.237,0,0,0,87.1,48.756,6.01,6.01,0,0,0,85.153,52.132Z" transform="translate(8.787 -35.952)" fill="#ee7a01"/>
      <path id="Trazado_893" data-name="Trazado 893" d="M96.775,64.036H93.161V44.791h3.457v3.143h.157a5.223,5.223,0,0,1,2.257-2.612,6.274,6.274,0,0,1,3.359-1.08,6.773,6.773,0,0,1,2.671.472l-1.1,3.5a5.987,5.987,0,0,0-2.12-.276,4.673,4.673,0,0,0-3.555,1.65,5.513,5.513,0,0,0-1.511,3.847Z" transform="translate(18.962 -35.916)" fill="#ee7a01"/>
    </g>
    <path id="Trazado_898" data-name="Trazado 898" d="M41.158,34.611v2.453h5.869A5.186,5.186,0,0,1,45.1,40.677a6.582,6.582,0,0,1-8.52-.634,6.67,6.67,0,0,1,0-9.243,6.155,6.155,0,0,1,4.578-1.905,6.292,6.292,0,0,1,4.425,1.752l1.73-1.73a8.641,8.641,0,0,0-6.154-2.475A9.036,9.036,0,0,0,36.6,27.667a8.879,8.879,0,0,0-3.352,3.307,8.857,8.857,0,0,0,3.352,12.2A9.019,9.019,0,0,0,41.158,44.4a8.379,8.379,0,0,0,6.023-2.279,7.875,7.875,0,0,0,2.366-5.98,7.931,7.931,0,0,0-.131-1.532Z" transform="translate(34.801 -26.441)" fill="#ee7a01"/>
    <path id="Trazado_899" data-name="Trazado 899" d="M47.785,29.9a5.625,5.625,0,0,0-4.14,1.663,5.832,5.832,0,1,0,9.944,4.118A5.512,5.512,0,0,0,51.9,31.562,5.6,5.6,0,0,0,47.785,29.9Zm2.3,8.278a3.154,3.154,0,0,1-4.623,0,3.52,3.52,0,0,1-.942-2.5,3.421,3.421,0,0,1,.942-2.5,3.177,3.177,0,0,1,4.643,0,3.414,3.414,0,0,1,.942,2.5A3.522,3.522,0,0,1,50.086,38.177Z" transform="translate(43.243 -23.503)" fill="#ee7a01"/>
    <rect id="Rectángulo_91" data-name="Rectángulo 91" width="2.541" height="16.997" transform="translate(123.378 0.613)" fill="#ee7a01"/>
    <path id="Trazado_900" data-name="Trazado 900" d="M54.629,29.9a5.625,5.625,0,0,0-4.14,1.663,5.832,5.832,0,1,0,9.944,4.118,5.512,5.512,0,0,0-1.687-4.118A5.6,5.6,0,0,0,54.629,29.9Zm2.3,8.278a3.151,3.151,0,0,1-4.621,0,3.52,3.52,0,0,1-.942-2.5,3.421,3.421,0,0,1,.942-2.5,3.177,3.177,0,0,1,4.643,0,3.414,3.414,0,0,1,.942,2.5A3.516,3.516,0,0,1,56.928,38.177Z" transform="translate(49.058 -23.503)" fill="#ee7a01"/>
    <path id="Trazado_901" data-name="Trazado 901" d="M70.382,39.185a2.96,2.96,0,0,1-2.8-1.752l7.732-3.2-.263-.657a6.392,6.392,0,0,0-.8-1.489,5.764,5.764,0,0,0-1.128-1.173,4.781,4.781,0,0,0-1.4-.755A4.943,4.943,0,0,0,70.1,29.9a5.191,5.191,0,0,0-3.9,1.643,5.833,5.833,0,0,0-1.554,4.138A5.634,5.634,0,0,0,66.287,39.8a5.836,5.836,0,0,0,8.914-.9l-1.972-1.313A3.285,3.285,0,0,1,70.382,39.185ZM68.038,33.1a2.974,2.974,0,0,1,2.146-.964,2.625,2.625,0,0,1,1.337.34,1.787,1.787,0,0,1,.81.886l-5.17,2.148A3.16,3.16,0,0,1,68.038,33.1Z" transform="translate(62.502 -23.503)" fill="#ee7a01"/>
    <path id="Trazado_902" data-name="Trazado 902" d="M64.342,31.19h-.087A3.773,3.773,0,0,0,61.21,29.9a5.273,5.273,0,0,0-3.9,1.707,5.9,5.9,0,0,0,0,8.17,5.355,5.355,0,0,0,3.9,1.687,3.745,3.745,0,0,0,3.045-1.315h.087v.592q0,3.635-3.087,3.635a2.857,2.857,0,0,1-1.754-.57,3.557,3.557,0,0,1-1.16-1.489l-2.212.921a5.854,5.854,0,0,0,.832,1.389A5.263,5.263,0,0,0,58.132,45.7a5.8,5.8,0,0,0,1.458.7,5.479,5.479,0,0,0,1.665.252,5.249,5.249,0,0,0,4.04-1.567,6.3,6.3,0,0,0,1.458-4.456V30.249h-2.41ZM63.618,38.2a2.851,2.851,0,0,1-2.19.986,3.022,3.022,0,0,1-2.3-1.008,3.787,3.787,0,0,1,.022-4.972,3.025,3.025,0,0,1,2.277-1.028,2.781,2.781,0,0,1,2.19,1.008,3.946,3.946,0,0,1,0,5.015Z" transform="translate(54.874 -23.503)" fill="#ee7a01"/>
  </g>
</svg>
